#
# There is insufficient memory for the Java Runtime Environment to continue.
# Native memory allocation (malloc) failed to allocate 847584 bytes for Chunk::new
# Possible reasons:
#   The system is out of physical RAM or swap space
#   The process is running with CompressedOops enabled, and the Java Heap may be blocking the growth of the native heap
# Possible solutions:
#   Reduce memory load on the system
#   Increase physical memory or swap space
#   Check if swap backing store is full
#   Decrease Java heap size (-Xmx/-Xms)
#   Decrease number of Java threads
#   Decrease Java thread stack sizes (-Xss)
#   Set larger code cache with -XX:ReservedCodeCacheSize=
#   JVM is running with Unscaled Compressed Oops mode in which the Java heap is
#     placed in the first 4GB address space. The Java Heap base address is the
#     maximum limit for the native heap growth. Please use -XX:HeapBaseMinAddress
#     to set the Java Heap base and to place the Java Heap above 4GB virtual address.
# This output file may be truncated or incomplete.
#
#  Out of Memory Error (t:/workspace/open/src/hotspot/share/memory/arena.cpp:196), pid=9744, tid=5448
#
# JRE version: Java(TM) SE Runtime Environment (13.0.1+9) (build 13.0.1+9)
# Java VM: Java HotSpot(TM) 64-Bit Server VM (13.0.1+9, mixed mode, sharing, tiered, compressed oops, g1 gc, windows-amd64)
# No core dump will be written. Minidumps are not enabled by default on client versions of Windows
#

---------------  S U M M A R Y ------------

Command Line: -Dfile.encoding=UTF-8 app.App

Host: Intel(R) Core(TM) i7-6500U CPU @ 2.50GHz, 4 cores, 7G,  Windows 10 , 64 bit Build 18362 (10.0.18362.900)
Time: Thu Jul 16 14:11:18 2020 Central Europe Daylight Time elapsed time: 663 seconds (0d 0h 11m 3s)

---------------  T H R E A D  ---------------

Current thread (0x000001db47434000):  JavaThread "C2 CompilerThread0" daemon [_thread_in_native, id=5448, stack(0x0000008d2ec00000,0x0000008d2ed00000)]


Current CompileTask:
C2: 663481 9285   !   4       com.mysql.cj.ParseInfo::<init> (1255 bytes)

Stack: [0x0000008d2ec00000,0x0000008d2ed00000]
Native frames: (J=compiled Java code, j=interpreted, Vv=VM code, C=native code)
V  [jvm.dll+0x626eca]
V  [jvm.dll+0x772c6a]
V  [jvm.dll+0x77441f]
V  [jvm.dll+0x774a23]
V  [jvm.dll+0x24da58]
V  [jvm.dll+0xc3ae7]
V  [jvm.dll+0xc406c]
V  [jvm.dll+0x35de75]
V  [jvm.dll+0x1a1000]
V  [jvm.dll+0x2079d6]
V  [jvm.dll+0x206adf]
V  [jvm.dll+0x18b94c]
V  [jvm.dll+0x2159bd]
V  [jvm.dll+0x213e6b]
V  [jvm.dll+0x738b16]
V  [jvm.dll+0x731c0a]
V  [jvm.dll+0x6260c6]
C  [ucrtbase.dll+0x20e82]
C  [KERNEL32.DLL+0x17bd4]
C  [ntdll.dll+0x6ce51]


---------------  P R O C E S S  ---------------

Threads class SMR info:
_java_thread_list=0x000001db4ddfa170, length=28, elements={
0x000001db47416800, 0x000001db4741a000, 0x000001db4742f800, 0x000001db47432000,
0x000001db47434000, 0x000001db47441800, 0x000001db4744d000, 0x000001db47e95000,
0x000001db47e97000, 0x000001db4ada4800, 0x000001db4ca83000, 0x000001db4ca81800,
0x000001db4ca7e000, 0x000001db4ca7f000, 0x000001db4ca7d800, 0x000001db4ca7f800,
0x000001db4ca80800, 0x000001db4c69c800, 0x000001db4c69d000, 0x000001db4c69e000,
0x000001db4c69b800, 0x000001db4c69f000, 0x000001db4c699000, 0x000001db4c69f800,
0x000001db4c69a000, 0x000001db4c6a0800, 0x000001db4c69b000, 0x000001db4c6a7000
}

Java Threads: ( => current thread )
  0x000001db47416800 JavaThread "Reference Handler" daemon [_thread_blocked, id=10660, stack(0x0000008d2e800000,0x0000008d2e900000)]
  0x000001db4741a000 JavaThread "Finalizer" daemon [_thread_blocked, id=12476, stack(0x0000008d2e900000,0x0000008d2ea00000)]
  0x000001db4742f800 JavaThread "Signal Dispatcher" daemon [_thread_blocked, id=6208, stack(0x0000008d2ea00000,0x0000008d2eb00000)]
  0x000001db47432000 JavaThread "Attach Listener" daemon [_thread_blocked, id=2188, stack(0x0000008d2eb00000,0x0000008d2ec00000)]
=>0x000001db47434000 JavaThread "C2 CompilerThread0" daemon [_thread_in_native, id=5448, stack(0x0000008d2ec00000,0x0000008d2ed00000)]
  0x000001db47441800 JavaThread "C1 CompilerThread0" daemon [_thread_blocked, id=7452, stack(0x0000008d2ed00000,0x0000008d2ee00000)]
  0x000001db4744d000 JavaThread "Sweeper thread" daemon [_thread_blocked, id=2392, stack(0x0000008d2ee00000,0x0000008d2ef00000)]
  0x000001db47e95000 JavaThread "Service Thread" daemon [_thread_blocked, id=4500, stack(0x0000008d2ef00000,0x0000008d2f000000)]
  0x000001db47e97000 JavaThread "Common-Cleaner" daemon [_thread_blocked, id=12100, stack(0x0000008d2f100000,0x0000008d2f200000)]
  0x000001db4ada4800 JavaThread "mysql-cj-abandoned-connection-cleanup" daemon [_thread_blocked, id=5916, stack(0x0000008d2f500000,0x0000008d2f600000)]
  0x000001db4ca83000 JavaThread "HikariPool-1 housekeeper" daemon [_thread_blocked, id=9120, stack(0x0000008d2f200000,0x0000008d2f300000)]
  0x000001db4ca81800 JavaThread "Catalina-utility-1" [_thread_blocked, id=7352, stack(0x0000008d2fa00000,0x0000008d2fb00000)]
  0x000001db4ca7e000 JavaThread "Catalina-utility-2" [_thread_blocked, id=1868, stack(0x0000008d2fb00000,0x0000008d2fc00000)]
  0x000001db4ca7f000 JavaThread "container-0" [_thread_blocked, id=13268, stack(0x0000008d2fc00000,0x0000008d2fd00000)]
  0x000001db4ca7d800 JavaThread "http-nio-8080-BlockPoller" daemon [_thread_in_native, id=12960, stack(0x0000008d2f800000,0x0000008d2f900000)]
  0x000001db4ca7f800 JavaThread "http-nio-8080-exec-1" daemon [_thread_blocked, id=12900, stack(0x0000008d2fd00000,0x0000008d2fe00000)]
  0x000001db4ca80800 JavaThread "http-nio-8080-exec-2" daemon [_thread_blocked, id=7716, stack(0x0000008d2fe00000,0x0000008d2ff00000)]
  0x000001db4c69c800 JavaThread "http-nio-8080-exec-3" daemon [_thread_blocked, id=9496, stack(0x0000008d2ff00000,0x0000008d30000000)]
  0x000001db4c69d000 JavaThread "http-nio-8080-exec-4" daemon [_thread_blocked, id=10028, stack(0x0000008d30000000,0x0000008d30100000)]
  0x000001db4c69e000 JavaThread "http-nio-8080-exec-5" daemon [_thread_blocked, id=9172, stack(0x0000008d30100000,0x0000008d30200000)]
  0x000001db4c69b800 JavaThread "http-nio-8080-exec-6" daemon [_thread_blocked, id=5640, stack(0x0000008d30200000,0x0000008d30300000)]
  0x000001db4c69f000 JavaThread "http-nio-8080-exec-7" daemon [_thread_blocked, id=7080, stack(0x0000008d30300000,0x0000008d30400000)]
  0x000001db4c699000 JavaThread "http-nio-8080-exec-8" daemon [_thread_blocked, id=8760, stack(0x0000008d30400000,0x0000008d30500000)]
  0x000001db4c69f800 JavaThread "http-nio-8080-exec-9" daemon [_thread_blocked, id=12868, stack(0x0000008d30500000,0x0000008d30600000)]
  0x000001db4c69a000 JavaThread "http-nio-8080-exec-10" daemon [_thread_blocked, id=9112, stack(0x0000008d30600000,0x0000008d30700000)]
  0x000001db4c6a0800 JavaThread "http-nio-8080-ClientPoller" daemon [_thread_in_native, id=11280, stack(0x0000008d30700000,0x0000008d30800000)]
  0x000001db4c69b000 JavaThread "http-nio-8080-Acceptor" daemon [_thread_in_native, id=748, stack(0x0000008d30800000,0x0000008d30900000)]
  0x000001db4c6a7000 JavaThread "DestroyJavaVM" [_thread_blocked, id=8964, stack(0x0000008d2e100000,0x0000008d2e200000)]

Other Threads:
  0x000001db47411000 VMThread "VM Thread" [stack: 0x0000008d2e700000,0x0000008d2e800000] [id=11532]
  0x000001db47e96800 WatcherThread [stack: 0x0000008d2f000000,0x0000008d2f100000] [id=7360]
  0x000001db28eab800 GCTaskThread "GC Thread#0" [stack: 0x0000008d2e200000,0x0000008d2e300000] [id=4928]
  0x000001db48a29000 GCTaskThread "GC Thread#1" [stack: 0x0000008d2f300000,0x0000008d2f400000] [id=10752]
  0x000001db48a29800 GCTaskThread "GC Thread#2" [stack: 0x0000008d2f400000,0x0000008d2f500000] [id=10980]
  0x000001db48a2a800 GCTaskThread "GC Thread#3" [stack: 0x0000008d2f600000,0x0000008d2f700000] [id=12812]
  0x000001db28ebe000 ConcurrentGCThread "G1 Main Marker" [stack: 0x0000008d2e300000,0x0000008d2e400000] [id=10688]
  0x000001db28ec4000 ConcurrentGCThread "G1 Conc#0" [stack: 0x0000008d2e400000,0x0000008d2e500000] [id=6772]
  0x000001db28f2e000 ConcurrentGCThread "G1 Refine#0" [stack: 0x0000008d2e500000,0x0000008d2e600000] [id=1220]
  0x000001db47294800 ConcurrentGCThread "G1 Young RemSet Sampling" [stack: 0x0000008d2e600000,0x0000008d2e700000] [id=6484]

Threads with active compile tasks:
C2 CompilerThread0   664805 9285   !   4       com.mysql.cj.ParseInfo::<init> (1255 bytes)

VM state:not at safepoint (normal execution)

VM Mutex/Monitor currently owned by a thread: None

Heap address: 0x0000000082000000, size: 2016 MB, Compressed Oops mode: 32-bit
Narrow klass base: 0x0000000800000000, Narrow klass shift: 3
Compressed class space size: 1073741824 Address: 0x0000000800b40000

Heap:
 garbage-first heap   total 95232K, used 45886K [0x0000000082000000, 0x0000000100000000)
  region size 1024K, 11 young (11264K), 4 survivors (4096K)
 Metaspace       used 69395K, capacity 71153K, committed 71416K, reserved 1112064K
  class space    used 8810K, capacity 9478K, committed 9600K, reserved 1048576K
Heap Regions: E=young(eden), S=young(survivor), O=old, HS=humongous(starts), HC=humongous(continues), CS=collection set, F=free, A=archive, TAMS=top-at-mark-start (previous, next)
|   0|0x0000000082000000, 0x0000000082100000, 0x0000000082100000|100%|HS|  |TAMS 0x0000000082100000, 0x0000000082000000| Complete 
|   1|0x0000000082100000, 0x0000000082200000, 0x0000000082200000|100%| O|  |TAMS 0x0000000082200000, 0x0000000082100000| Untracked 
|   2|0x0000000082200000, 0x0000000082300000, 0x0000000082300000|100%| O|  |TAMS 0x0000000082300000, 0x0000000082200000| Untracked 
|   3|0x0000000082300000, 0x0000000082400000, 0x0000000082400000|100%| O|  |TAMS 0x0000000082400000, 0x0000000082300000| Untracked 
|   4|0x0000000082400000, 0x0000000082500000, 0x0000000082500000|100%| O|  |TAMS 0x0000000082500000, 0x0000000082400000| Untracked 
|   5|0x0000000082500000, 0x00000000825eee00, 0x0000000082600000| 93%| O|  |TAMS 0x00000000825eee00, 0x0000000082500000| Untracked 
|   6|0x0000000082600000, 0x0000000082700000, 0x0000000082700000|100%| O|  |TAMS 0x0000000082700000, 0x0000000082600000| Untracked 
|   7|0x0000000082700000, 0x0000000082800000, 0x0000000082800000|100%| O|  |TAMS 0x0000000082800000, 0x0000000082700000| Untracked 
|   8|0x0000000082800000, 0x0000000082900000, 0x0000000082900000|100%| O|  |TAMS 0x0000000082900000, 0x0000000082800000| Untracked 
|   9|0x0000000082900000, 0x0000000082a00000, 0x0000000082a00000|100%| O|  |TAMS 0x0000000082a00000, 0x0000000082900000| Untracked 
|  10|0x0000000082a00000, 0x0000000082b00000, 0x0000000082b00000|100%| O|  |TAMS 0x0000000082b00000, 0x0000000082a00000| Untracked 
|  11|0x0000000082b00000, 0x0000000082c00000, 0x0000000082c00000|100%| O|  |TAMS 0x0000000082c00000, 0x0000000082b00000| Untracked 
|  12|0x0000000082c00000, 0x0000000082d00000, 0x0000000082d00000|100%| O|  |TAMS 0x0000000082d00000, 0x0000000082c00000| Untracked 
|  13|0x0000000082d00000, 0x0000000082e00000, 0x0000000082e00000|100%| O|  |TAMS 0x0000000082e00000, 0x0000000082d00000| Untracked 
|  14|0x0000000082e00000, 0x0000000082f00000, 0x0000000082f00000|100%| O|  |TAMS 0x0000000082f00000, 0x0000000082e00000| Untracked 
|  15|0x0000000082f00000, 0x0000000083000000, 0x0000000083000000|100%| O|  |TAMS 0x0000000083000000, 0x0000000082f00000| Untracked 
|  16|0x0000000083000000, 0x0000000083100000, 0x0000000083100000|100%| O|  |TAMS 0x0000000083100000, 0x0000000083000000| Untracked 
|  17|0x0000000083100000, 0x0000000083200000, 0x0000000083200000|100%| O|  |TAMS 0x0000000083200000, 0x0000000083100000| Untracked 
|  18|0x0000000083200000, 0x0000000083300000, 0x0000000083300000|100%| O|  |TAMS 0x0000000083300000, 0x0000000083200000| Untracked 
|  19|0x0000000083300000, 0x0000000083400000, 0x0000000083400000|100%| O|  |TAMS 0x0000000083400000, 0x0000000083300000| Untracked 
|  20|0x0000000083400000, 0x0000000083500000, 0x0000000083500000|100%| O|  |TAMS 0x0000000083500000, 0x0000000083400000| Untracked 
|  21|0x0000000083500000, 0x0000000083600000, 0x0000000083600000|100%| O|  |TAMS 0x0000000083600000, 0x0000000083500000| Untracked 
|  22|0x0000000083600000, 0x0000000083700000, 0x0000000083700000|100%| O|  |TAMS 0x0000000083700000, 0x0000000083600000| Untracked 
|  23|0x0000000083700000, 0x0000000083800000, 0x0000000083800000|100%| O|  |TAMS 0x00000000837fba00, 0x0000000083700000| Untracked 
|  24|0x0000000083800000, 0x0000000083900000, 0x0000000083900000|100%| O|  |TAMS 0x0000000083800000, 0x0000000083800000| Untracked 
|  25|0x0000000083900000, 0x0000000083a00000, 0x0000000083a00000|100%| O|  |TAMS 0x0000000083900000, 0x0000000083900000| Untracked 
|  26|0x0000000083a00000, 0x0000000083b00000, 0x0000000083b00000|100%| O|  |TAMS 0x0000000083a00000, 0x0000000083a00000| Untracked 
|  27|0x0000000083b00000, 0x0000000083c00000, 0x0000000083c00000|100%| O|  |TAMS 0x0000000083b00000, 0x0000000083b00000| Untracked 
|  28|0x0000000083c00000, 0x0000000083d00000, 0x0000000083d00000|100%| O|  |TAMS 0x0000000083c00000, 0x0000000083c00000| Untracked 
|  29|0x0000000083d00000, 0x0000000083e00000, 0x0000000083e00000|100%| O|  |TAMS 0x0000000083d00000, 0x0000000083d00000| Untracked 
|  30|0x0000000083e00000, 0x0000000083f00000, 0x0000000083f00000|100%| O|  |TAMS 0x0000000083e00000, 0x0000000083e00000| Untracked 
|  31|0x0000000083f00000, 0x0000000084000000, 0x0000000084000000|100%| O|  |TAMS 0x0000000083f00000, 0x0000000083f00000| Untracked 
|  32|0x0000000084000000, 0x0000000084100000, 0x0000000084100000|100%| O|  |TAMS 0x0000000084000000, 0x0000000084000000| Untracked 
|  33|0x0000000084100000, 0x0000000084200000, 0x0000000084200000|100%| O|  |TAMS 0x0000000084100000, 0x0000000084100000| Untracked 
|  34|0x0000000084200000, 0x0000000084300000, 0x0000000084300000|100%| O|  |TAMS 0x0000000084200000, 0x0000000084200000| Untracked 
|  35|0x0000000084300000, 0x0000000084338000, 0x0000000084400000| 21%| O|  |TAMS 0x0000000084300000, 0x0000000084300000| Untracked 
|  36|0x0000000084400000, 0x0000000084400000, 0x0000000084500000|  0%| F|  |TAMS 0x0000000084400000, 0x0000000084400000| Untracked 
|  37|0x0000000084500000, 0x0000000084500000, 0x0000000084600000|  0%| F|  |TAMS 0x0000000084500000, 0x0000000084500000| Untracked 
|  38|0x0000000084600000, 0x0000000084600000, 0x0000000084700000|  0%| F|  |TAMS 0x0000000084600000, 0x0000000084600000| Untracked 
|  39|0x0000000084700000, 0x0000000084700000, 0x0000000084800000|  0%| F|  |TAMS 0x0000000084700000, 0x0000000084700000| Untracked 
|  40|0x0000000084800000, 0x0000000084800000, 0x0000000084900000|  0%| F|  |TAMS 0x0000000084800000, 0x0000000084800000| Untracked 
|  41|0x0000000084900000, 0x0000000084900000, 0x0000000084a00000|  0%| F|  |TAMS 0x0000000084900000, 0x0000000084900000| Untracked 
|  42|0x0000000084a00000, 0x0000000084a00000, 0x0000000084b00000|  0%| F|  |TAMS 0x0000000084a00000, 0x0000000084a00000| Untracked 
|  43|0x0000000084b00000, 0x0000000084b00000, 0x0000000084c00000|  0%| F|  |TAMS 0x0000000084b00000, 0x0000000084b00000| Untracked 
|  44|0x0000000084c00000, 0x0000000084c00000, 0x0000000084d00000|  0%| F|  |TAMS 0x0000000084c00000, 0x0000000084c00000| Untracked 
|  45|0x0000000084d00000, 0x0000000084d00000, 0x0000000084e00000|  0%| F|  |TAMS 0x0000000084d00000, 0x0000000084d00000| Untracked 
|  46|0x0000000084e00000, 0x0000000084e00000, 0x0000000084f00000|  0%| F|  |TAMS 0x0000000084e00000, 0x0000000084e00000| Untracked 
|  47|0x0000000084f00000, 0x0000000084f00000, 0x0000000085000000|  0%| F|  |TAMS 0x0000000084f00000, 0x0000000084f00000| Untracked 
|  48|0x0000000085000000, 0x0000000085000000, 0x0000000085100000|  0%| F|  |TAMS 0x0000000085000000, 0x0000000085000000| Untracked 
|  49|0x0000000085100000, 0x0000000085100000, 0x0000000085200000|  0%| F|  |TAMS 0x0000000085100000, 0x0000000085100000| Untracked 
|  50|0x0000000085200000, 0x0000000085200000, 0x0000000085300000|  0%| F|  |TAMS 0x0000000085200000, 0x0000000085200000| Untracked 
|  51|0x0000000085300000, 0x0000000085300000, 0x0000000085400000|  0%| F|  |TAMS 0x0000000085300000, 0x0000000085300000| Untracked 
|  52|0x0000000085400000, 0x0000000085400000, 0x0000000085500000|  0%| F|  |TAMS 0x0000000085400000, 0x0000000085400000| Untracked 
|  53|0x0000000085500000, 0x0000000085500000, 0x0000000085600000|  0%| F|  |TAMS 0x0000000085500000, 0x0000000085500000| Untracked 
|  54|0x0000000085600000, 0x0000000085600000, 0x0000000085700000|  0%| F|  |TAMS 0x0000000085600000, 0x0000000085600000| Untracked 
|  55|0x0000000085700000, 0x0000000085700000, 0x0000000085800000|  0%| F|  |TAMS 0x0000000085700000, 0x0000000085700000| Untracked 
|  56|0x0000000085800000, 0x0000000085800000, 0x0000000085900000|  0%| F|  |TAMS 0x0000000085800000, 0x0000000085800000| Untracked 
|  57|0x0000000085900000, 0x0000000085900000, 0x0000000085a00000|  0%| F|  |TAMS 0x0000000085900000, 0x0000000085900000| Untracked 
|  58|0x0000000085a00000, 0x0000000085a00000, 0x0000000085b00000|  0%| F|  |TAMS 0x0000000085a00000, 0x0000000085a00000| Untracked 
|  59|0x0000000085b00000, 0x0000000085b00000, 0x0000000085c00000|  0%| F|  |TAMS 0x0000000085b00000, 0x0000000085b00000| Untracked 
|  60|0x0000000085c00000, 0x0000000085ca8d60, 0x0000000085d00000| 65%| S|CS|TAMS 0x0000000085c00000, 0x0000000085c00000| Complete 
|  61|0x0000000085d00000, 0x0000000085e00000, 0x0000000085e00000|100%| S|CS|TAMS 0x0000000085d00000, 0x0000000085d00000| Complete 
|  62|0x0000000085e00000, 0x0000000085f00000, 0x0000000085f00000|100%| S|CS|TAMS 0x0000000085e00000, 0x0000000085e00000| Complete 
|  63|0x0000000085f00000, 0x0000000086000000, 0x0000000086000000|100%| S|CS|TAMS 0x0000000085f00000, 0x0000000085f00000| Complete 
|  64|0x0000000086000000, 0x0000000086000000, 0x0000000086100000|  0%| F|  |TAMS 0x0000000086000000, 0x0000000086000000| Untracked 
|  65|0x0000000086100000, 0x0000000086100000, 0x0000000086200000|  0%| F|  |TAMS 0x0000000086100000, 0x0000000086100000| Untracked 
|  66|0x0000000086200000, 0x0000000086200000, 0x0000000086300000|  0%| F|  |TAMS 0x0000000086200000, 0x0000000086200000| Untracked 
|  67|0x0000000086300000, 0x0000000086300000, 0x0000000086400000|  0%| F|  |TAMS 0x0000000086300000, 0x0000000086300000| Untracked 
|  68|0x0000000086400000, 0x0000000086400000, 0x0000000086500000|  0%| F|  |TAMS 0x0000000086400000, 0x0000000086400000| Untracked 
|  69|0x0000000086500000, 0x0000000086500000, 0x0000000086600000|  0%| F|  |TAMS 0x0000000086500000, 0x0000000086500000| Untracked 
|  70|0x0000000086600000, 0x0000000086600000, 0x0000000086700000|  0%| F|  |TAMS 0x0000000086600000, 0x0000000086600000| Untracked 
|  71|0x0000000086700000, 0x0000000086700000, 0x0000000086800000|  0%| F|  |TAMS 0x0000000086700000, 0x0000000086700000| Untracked 
|  72|0x0000000086800000, 0x0000000086800000, 0x0000000086900000|  0%| F|  |TAMS 0x0000000086800000, 0x0000000086800000| Untracked 
|  73|0x0000000086900000, 0x0000000086900000, 0x0000000086a00000|  0%| F|  |TAMS 0x0000000086900000, 0x0000000086900000| Untracked 
|  74|0x0000000086a00000, 0x0000000086a00000, 0x0000000086b00000|  0%| F|  |TAMS 0x0000000086a00000, 0x0000000086a00000| Untracked 
|  75|0x0000000086b00000, 0x0000000086b00000, 0x0000000086c00000|  0%| F|  |TAMS 0x0000000086b00000, 0x0000000086b00000| Untracked 
|  76|0x0000000086c00000, 0x0000000086c00000, 0x0000000086d00000|  0%| F|  |TAMS 0x0000000086c00000, 0x0000000086c00000| Untracked 
|  77|0x0000000086d00000, 0x0000000086d00000, 0x0000000086e00000|  0%| F|  |TAMS 0x0000000086d00000, 0x0000000086d00000| Untracked 
|  78|0x0000000086e00000, 0x0000000086e00000, 0x0000000086f00000|  0%| F|  |TAMS 0x0000000086e00000, 0x0000000086e00000| Untracked 
|  79|0x0000000086f00000, 0x0000000086f00000, 0x0000000087000000|  0%| F|  |TAMS 0x0000000086f00000, 0x0000000086f00000| Untracked 
|  80|0x0000000087000000, 0x0000000087000000, 0x0000000087100000|  0%| F|  |TAMS 0x0000000087000000, 0x0000000087000000| Untracked 
|  81|0x0000000087100000, 0x0000000087100000, 0x0000000087200000|  0%| F|  |TAMS 0x0000000087100000, 0x0000000087100000| Untracked 
|  82|0x0000000087200000, 0x0000000087200000, 0x0000000087300000|  0%| F|  |TAMS 0x0000000087200000, 0x0000000087200000| Untracked 
|  83|0x0000000087300000, 0x0000000087300000, 0x0000000087400000|  0%| F|  |TAMS 0x0000000087300000, 0x0000000087300000| Untracked 
|  84|0x0000000087400000, 0x0000000087400000, 0x0000000087500000|  0%| F|  |TAMS 0x0000000087400000, 0x0000000087400000| Untracked 
|  85|0x0000000087500000, 0x0000000087500000, 0x0000000087600000|  0%| F|  |TAMS 0x0000000087500000, 0x0000000087500000| Untracked 
| 113|0x0000000089100000, 0x0000000089131cf8, 0x0000000089200000| 19%| E|  |TAMS 0x0000000089100000, 0x0000000089100000| Complete 
| 114|0x0000000089200000, 0x0000000089300000, 0x0000000089300000|100%| E|CS|TAMS 0x0000000089200000, 0x0000000089200000| Complete 
| 115|0x0000000089300000, 0x0000000089400000, 0x0000000089400000|100%| E|CS|TAMS 0x0000000089300000, 0x0000000089300000| Complete 
| 116|0x0000000089400000, 0x0000000089500000, 0x0000000089500000|100%| E|CS|TAMS 0x0000000089400000, 0x0000000089400000| Complete 
| 117|0x0000000089500000, 0x0000000089600000, 0x0000000089600000|100%| E|CS|TAMS 0x0000000089500000, 0x0000000089500000| Complete 
| 118|0x0000000089600000, 0x0000000089700000, 0x0000000089700000|100%| E|CS|TAMS 0x0000000089600000, 0x0000000089600000| Complete 
| 151|0x000000008b700000, 0x000000008b800000, 0x000000008b800000|100%| E|CS|TAMS 0x000000008b700000, 0x000000008b700000| Complete 

Card table byte_map: [0x000001db40750000,0x000001db40b40000] _byte_map_base: 0x000001db40340000

Marking Bits (Prev, Next): (CMBitMap*) 0x000001db28eac9d8, (CMBitMap*) 0x000001db28eac998
 Prev Bits: [0x000001db42eb0000, 0x000001db44e30000)
 Next Bits: [0x000001db40f30000, 0x000001db42eb0000)

Polling page: 0x000001db26d40000

Metaspace:

Usage:
  Non-class:     60.23 MB capacity,    59.16 MB ( 98%) used,   864.82 KB (  1%) free+waste,   225.81 KB ( <1%) overhead. 
      Class:      9.26 MB capacity,     8.60 MB ( 93%) used,   564.45 KB (  6%) free+waste,   102.69 KB (  1%) overhead. 
       Both:     69.49 MB capacity,    67.77 MB ( 98%) used,     1.40 MB (  2%) free+waste,   328.50 KB ( <1%) overhead. 

Virtual space:
  Non-class space:       62.00 MB reserved,      60.37 MB ( 97%) committed 
      Class space:        1.00 GB reserved,       9.38 MB ( <1%) committed 
             Both:        1.06 GB reserved,      69.74 MB (  6%) committed 

Chunk freelists:
   Non-Class:  13.00 KB
       Class:  0 bytes
        Both:  13.00 KB

MaxMetaspaceSize: 17179869184.00 GB
CompressedClassSpaceSize: 1.00 GB

CodeHeap 'non-profiled nmethods': size=120064Kb used=4432Kb max_used=4916Kb free=115631Kb
 bounds [0x000001db38e20000, 0x000001db392f0000, 0x000001db40360000]
CodeHeap 'profiled nmethods': size=120000Kb used=17738Kb max_used=18785Kb free=102261Kb
 bounds [0x000001db318f0000, 0x000001db32b50000, 0x000001db38e20000]
CodeHeap 'non-nmethods': size=5696Kb used=1359Kb max_used=1411Kb free=4336Kb
 bounds [0x000001db31360000, 0x000001db315d0000, 0x000001db318f0000]
 total_blobs=12222 nmethods=8081 adapters=563
 compilation: enabled
              stopped_count=0, restarted_count=0
 full_count=0

Compilation events (20 events):
Event: 663.053 Thread 0x000001db47441800 9349       3       org.hibernate.engine.internal.StatefulPersistenceContext::addCollection (84 bytes)
Event: 663.054 Thread 0x000001db47441800 nmethod 9349 0x000001db321ee710 code [0x000001db321eea80, 0x000001db321f03d0]
Event: 663.054 Thread 0x000001db47441800 9352       3       java.lang.Long::stringSize (55 bytes)
Event: 663.055 Thread 0x000001db47441800 nmethod 9352 0x000001db321cd490 code [0x000001db321cd640, 0x000001db321cd8f8]
Event: 663.055 Thread 0x000001db47441800 9353       3       java.lang.Long::getChars (208 bytes)
Event: 663.055 Thread 0x000001db47441800 nmethod 9353 0x000001db32438110 code [0x000001db32438320, 0x000001db324389b8]
Event: 663.055 Thread 0x000001db47441800 9350       3       org.hibernate.engine.internal.StatefulPersistenceContext::getOrInitializeCollectionEntries (21 bytes)
Event: 663.056 Thread 0x000001db47441800 nmethod 9350 0x000001db3232bd90 code [0x000001db3232bfa0, 0x000001db3232c510]
Event: 663.056 Thread 0x000001db47441800 9351       3       org.hibernate.engine.internal.StatefulPersistenceContext::addCollectionByKey (35 bytes)
Event: 663.056 Thread 0x000001db47441800 nmethod 9351 0x000001db3236ff10 code [0x000001db32370120, 0x000001db32370660]
Event: 663.056 Thread 0x000001db47441800 9355       1       org.springframework.web.context.request.ServletRequestAttributes::getRequest (5 bytes)
Event: 663.056 Thread 0x000001db47441800 nmethod 9355 0x000001db38ea5710 code [0x000001db38ea58a0, 0x000001db38ea59d8]
Event: 663.056 Thread 0x000001db47441800 9354       3       sun.security.ssl.SSLCipher$T13GcmWriteCipherGenerator$GcmWriteCipher::calculateFragmentSize (9 bytes)
Event: 663.056 Thread 0x000001db47441800 nmethod 9354 0x000001db31ea3790 code [0x000001db31ea3920, 0x000001db31ea3ab8]
Event: 663.056 Thread 0x000001db47441800 9356       3       org.springframework.web.context.request.ServletRequestAttributes::<init> (28 bytes)
Event: 663.057 Thread 0x000001db47441800 nmethod 9356 0x000001db31a21c10 code [0x000001db31a21e60, 0x000001db31a22630]
Event: 663.057 Thread 0x000001db47441800 9357       3       ch.qos.logback.classic.Logger::log (21 bytes)
Event: 663.057 Thread 0x000001db47441800 nmethod 9357 0x000001db31e7cb10 code [0x000001db31e7ccc0, 0x000001db31e7cee0]
Event: 663.057 Thread 0x000001db47441800 9358       3       ch.qos.logback.classic.Level::fromLocationAwareLoggerInteger (116 bytes)
Event: 663.058 Thread 0x000001db47441800 nmethod 9358 0x000001db319fec90 code [0x000001db319fef00, 0x000001db319ff920]

GC Heap History (20 events):
Event: 11.101 GC heap before
{Heap before GC invocations=20 (full 0):
 garbage-first heap   total 54272K, used 42311K [0x0000000082000000, 0x0000000100000000)
  region size 1024K, 18 young (18432K), 2 survivors (2048K)
 Metaspace       used 50074K, capacity 51240K, committed 51576K, reserved 1093632K
  class space    used 6622K, capacity 7054K, committed 7168K, reserved 1048576K
}
Event: 11.109 GC heap after
{Heap after GC invocations=21 (full 0):
 garbage-first heap   total 65536K, used 26427K [0x0000000082000000, 0x0000000100000000)
  region size 1024K, 2 young (2048K), 2 survivors (2048K)
 Metaspace       used 50074K, capacity 51240K, committed 51576K, reserved 1093632K
  class space    used 6622K, capacity 7054K, committed 7168K, reserved 1048576K
}
Event: 11.375 GC heap before
{Heap before GC invocations=21 (full 0):
 garbage-first heap   total 65536K, used 46907K [0x0000000082000000, 0x0000000100000000)
  region size 1024K, 22 young (22528K), 2 survivors (2048K)
 Metaspace       used 50588K, capacity 51723K, committed 51832K, reserved 1093632K
  class space    used 6642K, capacity 7061K, committed 7168K, reserved 1048576K
}
Event: 11.381 GC heap after
{Heap after GC invocations=22 (full 0):
 garbage-first heap   total 65536K, used 26729K [0x0000000082000000, 0x0000000100000000)
  region size 1024K, 2 young (2048K), 2 survivors (2048K)
 Metaspace       used 50588K, capacity 51723K, committed 51832K, reserved 1093632K
  class space    used 6642K, capacity 7061K, committed 7168K, reserved 1048576K
}
Event: 11.607 GC heap before
{Heap before GC invocations=22 (full 0):
 garbage-first heap   total 65536K, used 47209K [0x0000000082000000, 0x0000000100000000)
  region size 1024K, 22 young (22528K), 2 survivors (2048K)
 Metaspace       used 51979K, capacity 53050K, committed 53240K, reserved 1095680K
  class space    used 6809K, capacity 7225K, committed 7296K, reserved 1048576K
}
Event: 11.614 GC heap after
{Heap after GC invocations=23 (full 0):
 garbage-first heap   total 65536K, used 27964K [0x0000000082000000, 0x0000000100000000)
  region size 1024K, 3 young (3072K), 3 survivors (3072K)
 Metaspace       used 51979K, capacity 53050K, committed 53240K, reserved 1095680K
  class space    used 6809K, capacity 7225K, committed 7296K, reserved 1048576K
}
Event: 13.245 GC heap before
{Heap before GC invocations=23 (full 0):
 garbage-first heap   total 65536K, used 48444K [0x0000000082000000, 0x0000000100000000)
  region size 1024K, 23 young (23552K), 3 survivors (3072K)
 Metaspace       used 53748K, capacity 54961K, committed 55288K, reserved 1097728K
  class space    used 7013K, capacity 7477K, committed 7552K, reserved 1048576K
}
Event: 13.256 GC heap after
{Heap after GC invocations=24 (full 0):
 garbage-first heap   total 65536K, used 29323K [0x0000000082000000, 0x0000000100000000)
  region size 1024K, 3 young (3072K), 3 survivors (3072K)
 Metaspace       used 53748K, capacity 54961K, committed 55288K, reserved 1097728K
  class space    used 7013K, capacity 7477K, committed 7552K, reserved 1048576K
}
Event: 13.642 GC heap before
{Heap before GC invocations=24 (full 0):
 garbage-first heap   total 65536K, used 49803K [0x0000000082000000, 0x0000000100000000)
  region size 1024K, 23 young (23552K), 3 survivors (3072K)
 Metaspace       used 56828K, capacity 58195K, committed 58360K, reserved 1099776K
  class space    used 7447K, capacity 7979K, committed 8064K, reserved 1048576K
}
Event: 13.652 GC heap after
{Heap after GC invocations=25 (full 0):
 garbage-first heap   total 78848K, used 30343K [0x0000000082000000, 0x0000000100000000)
  region size 1024K, 3 young (3072K), 3 survivors (3072K)
 Metaspace       used 56828K, capacity 58195K, committed 58360K, reserved 1099776K
  class space    used 7447K, capacity 7979K, committed 8064K, reserved 1048576K
}
Event: 14.235 GC heap before
{Heap before GC invocations=25 (full 0):
 garbage-first heap   total 78848K, used 54919K [0x0000000082000000, 0x0000000100000000)
  region size 1024K, 28 young (28672K), 3 survivors (3072K)
 Metaspace       used 58068K, capacity 59477K, committed 59768K, reserved 1101824K
  class space    used 7558K, capacity 8105K, committed 8192K, reserved 1048576K
}
Event: 14.242 GC heap after
{Heap after GC invocations=26 (full 0):
 garbage-first heap   total 78848K, used 32428K [0x0000000082000000, 0x0000000100000000)
  region size 1024K, 4 young (4096K), 4 survivors (4096K)
 Metaspace       used 58068K, capacity 59477K, committed 59768K, reserved 1101824K
  class space    used 7558K, capacity 8105K, committed 8192K, reserved 1048576K
}
Event: 14.883 GC heap before
{Heap before GC invocations=26 (full 0):
 garbage-first heap   total 78848K, used 58028K [0x0000000082000000, 0x0000000100000000)
  region size 1024K, 29 young (29696K), 4 survivors (4096K)
 Metaspace       used 59219K, capacity 60714K, committed 60792K, reserved 1101824K
  class space    used 7624K, capacity 8179K, committed 8192K, reserved 1048576K
}
Event: 14.892 GC heap after
{Heap after GC invocations=27 (full 0):
 garbage-first heap   total 78848K, used 34481K [0x0000000082000000, 0x0000000100000000)
  region size 1024K, 2 young (2048K), 2 survivors (2048K)
 Metaspace       used 59219K, capacity 60714K, committed 60792K, reserved 1101824K
  class space    used 7624K, capacity 8179K, committed 8192K, reserved 1048576K
}
Event: 15.446 GC heap before
{Heap before GC invocations=27 (full 0):
 garbage-first heap   total 78848K, used 59057K [0x0000000082000000, 0x0000000100000000)
  region size 1024K, 26 young (26624K), 2 survivors (2048K)
 Metaspace       used 61171K, capacity 62756K, committed 62968K, reserved 1103872K
  class space    used 7883K, capacity 8454K, committed 8576K, reserved 1048576K
}
Event: 15.452 GC heap after
{Heap after GC invocations=28 (full 0):
 garbage-first heap   total 78848K, used 36036K [0x0000000082000000, 0x0000000100000000)
  region size 1024K, 4 young (4096K), 4 survivors (4096K)
 Metaspace       used 61171K, capacity 62756K, committed 62968K, reserved 1103872K
  class space    used 7883K, capacity 8454K, committed 8576K, reserved 1048576K
}
Event: 18.951 GC heap before
{Heap before GC invocations=28 (full 0):
 garbage-first heap   total 78848K, used 59588K [0x0000000082000000, 0x0000000100000000)
  region size 1024K, 28 young (28672K), 4 survivors (4096K)
 Metaspace       used 64242K, capacity 65891K, committed 66168K, reserved 1105920K
  class space    used 8262K, capacity 8895K, committed 8960K, reserved 1048576K
}
Event: 18.987 GC heap after
{Heap after GC invocations=29 (full 0):
 garbage-first heap   total 95232K, used 38086K [0x0000000082000000, 0x0000000100000000)
  region size 1024K, 4 young (4096K), 4 survivors (4096K)
 Metaspace       used 64242K, capacity 65891K, committed 66168K, reserved 1105920K
  class space    used 8262K, capacity 8895K, committed 8960K, reserved 1048576K
}
Event: 138.551 GC heap before
{Heap before GC invocations=29 (full 0):
 garbage-first heap   total 95232K, used 66758K [0x0000000082000000, 0x0000000100000000)
  region size 1024K, 33 young (33792K), 4 survivors (4096K)
 Metaspace       used 68923K, capacity 70687K, committed 70776K, reserved 1110016K
  class space    used 8792K, capacity 9445K, committed 9472K, reserved 1048576K
}
Event: 138.562 GC heap after
{Heap after GC invocations=30 (full 0):
 garbage-first heap   total 95232K, used 39742K [0x0000000082000000, 0x0000000100000000)
  region size 1024K, 4 young (4096K), 4 survivors (4096K)
 Metaspace       used 68923K, capacity 70687K, committed 70776K, reserved 1110016K
  class space    used 8792K, capacity 9445K, committed 9472K, reserved 1048576K
}

Deoptimization events (20 events):
Event: 23.797 Thread 0x000001db4ca81800 DEOPT PACKING pc=0x000001db39193cbc sp=0x0000008d2fafe9c0
Event: 23.797 Thread 0x000001db4ca81800 DEOPT UNPACKING pc=0x000001db313a912f sp=0x0000008d2fafe990 mode 2
Event: 67.761 Thread 0x000001db4ca7f800 DEOPT PACKING pc=0x000001db3294d1d8 sp=0x0000008d2fdfa870
Event: 67.761 Thread 0x000001db4ca7f800 DEOPT UNPACKING pc=0x000001db313a964e sp=0x0000008d2fdf9d80 mode 0
Event: 133.797 Thread 0x000001db4ca81800 Uncommon trap: trap_request=0xffffff45 fr.pc=0x000001db391adaf0 relative=0x00000000000001b0
Event: 133.797 Thread 0x000001db4ca81800 Uncommon trap: reason=unstable_if action=reinterpret pc=0x000001db391adaf0 method=java.util.concurrent.locks.ReentrantLock$Sync.nonfairTryAcquire(I)Z @ 19 c2
Event: 133.797 Thread 0x000001db4ca81800 DEOPT PACKING pc=0x000001db391adaf0 sp=0x0000008d2fafeda0
Event: 133.797 Thread 0x000001db4ca81800 DEOPT UNPACKING pc=0x000001db313a912f sp=0x0000008d2fafec10 mode 2
Event: 138.565 Thread 0x000001db4c699000 Uncommon trap: trap_request=0xffffff45 fr.pc=0x000001db38ec0374 relative=0x0000000000000234
Event: 138.565 Thread 0x000001db4c699000 Uncommon trap: reason=unstable_if action=reinterpret pc=0x000001db38ec0374 method=java.util.regex.Matcher.reset()Ljava/util/regex/Matcher; @ 71 c2
Event: 138.565 Thread 0x000001db4c699000 DEOPT PACKING pc=0x000001db38ec0374 sp=0x0000008d304f8680
Event: 138.565 Thread 0x000001db4c699000 DEOPT UNPACKING pc=0x000001db313a912f sp=0x0000008d304f8608 mode 2
Event: 643.940 Thread 0x000001db4c69c800 Uncommon trap: trap_request=0xffffff76 fr.pc=0x000001db38fb530c relative=0x0000000000000b4c
Event: 643.940 Thread 0x000001db4c69c800 Uncommon trap: reason=predicate action=maybe_recompile pc=0x000001db38fb530c method=java.util.TreeMap.getEntry(Ljava/lang/Object;)Ljava/util/TreeMap$Entry; @ 36 c2
Event: 643.940 Thread 0x000001db4c69c800 DEOPT PACKING pc=0x000001db38fb530c sp=0x0000008d2fffde30
Event: 643.940 Thread 0x000001db4c69c800 DEOPT UNPACKING pc=0x000001db313a912f sp=0x0000008d2fffde28 mode 2
Event: 663.010 Thread 0x000001db4c69f000 DEOPT PACKING pc=0x000001db329fb769 sp=0x0000008d303f75c0
Event: 663.010 Thread 0x000001db4c69f000 DEOPT UNPACKING pc=0x000001db313a964e sp=0x0000008d303f6c00 mode 0
Event: 663.036 Thread 0x000001db4c69a000 DEOPT PACKING pc=0x000001db329fb769 sp=0x0000008d306f77b0
Event: 663.036 Thread 0x000001db4c69a000 DEOPT UNPACKING pc=0x000001db313a964e sp=0x0000008d306f6df0 mode 0

Classes unloaded (0 events):
No events

Classes redefined (0 events):
No events

Internal exceptions (20 events):
Event: 283.002 Thread 0x000001db4c69b800 Exception <a 'java/lang/NullPointerException'{0x00000000895d9360}> (0x00000000895d9360) 
thrown [t:/workspace/open/src/hotspot/share/interpreter/linkResolver.cpp, line 1431]
Event: 283.002 Thread 0x000001db4c69b800 Exception <a 'java/lang/NullPointerException'{0x00000000895db5d0}> (0x00000000895db5d0) 
thrown [t:/workspace/open/src/hotspot/share/interpreter/linkResolver.cpp, line 1431]
Event: 299.596 Thread 0x000001db4c699000 Exception <a 'java/lang/NullPointerException'{0x000000008945cb58}> (0x000000008945cb58) 
thrown [t:/workspace/open/src/hotspot/share/interpreter/linkResolver.cpp, line 1431]
Event: 299.596 Thread 0x000001db4c699000 Exception <a 'java/lang/NullPointerException'{0x000000008945edc8}> (0x000000008945edc8) 
thrown [t:/workspace/open/src/hotspot/share/interpreter/linkResolver.cpp, line 1431]
Event: 641.032 Thread 0x000001db4c69a000 Exception <a 'java/lang/NullPointerException'{0x0000000089695920}> (0x0000000089695920) 
thrown [t:/workspace/open/src/hotspot/share/interpreter/linkResolver.cpp, line 1431]
Event: 641.032 Thread 0x000001db4c69a000 Exception <a 'java/lang/NullPointerException'{0x0000000089697b90}> (0x0000000089697b90) 
thrown [t:/workspace/open/src/hotspot/share/interpreter/linkResolver.cpp, line 1431]
Event: 643.940 Thread 0x000001db4c69c800 Exception <a 'java/lang/NullPointerException'{0x00000000896a4548}> (0x00000000896a4548) 
thrown [t:/workspace/open/src/hotspot/share/interpreter/linkResolver.cpp, line 1431]
Event: 643.940 Thread 0x000001db4c69c800 Exception <a 'java/lang/NullPointerException'{0x00000000896a65b0}> (0x00000000896a65b0) 
thrown [t:/workspace/open/src/hotspot/share/interpreter/linkResolver.cpp, line 1431]
Event: 643.940 Thread 0x000001db4ca7f800 Exception <a 'java/lang/NullPointerException'{0x0000000089511a60}> (0x0000000089511a60) 
thrown [t:/workspace/open/src/hotspot/share/interpreter/linkResolver.cpp, line 1431]
Event: 643.940 Thread 0x000001db4ca7f800 Exception <a 'java/lang/NullPointerException'{0x0000000089513cd0}> (0x0000000089513cd0) 
thrown [t:/workspace/open/src/hotspot/share/interpreter/linkResolver.cpp, line 1431]
Event: 643.945 Thread 0x000001db4ca80800 Exception <a 'java/lang/NullPointerException'{0x0000000089529068}> (0x0000000089529068) 
thrown [t:/workspace/open/src/hotspot/share/interpreter/linkResolver.cpp, line 1431]
Event: 643.945 Thread 0x000001db4ca80800 Exception <a 'java/lang/NullPointerException'{0x000000008952b2d8}> (0x000000008952b2d8) 
thrown [t:/workspace/open/src/hotspot/share/interpreter/linkResolver.cpp, line 1431]
Event: 663.002 Thread 0x000001db4c69f000 Exception <a 'java/lang/NullPointerException'{0x00000000894459b0}> (0x00000000894459b0) 
thrown [t:/workspace/open/src/hotspot/share/interpreter/linkResolver.cpp, line 1431]
Event: 663.002 Thread 0x000001db4c69f000 Exception <a 'java/lang/NullPointerException'{0x0000000089447c20}> (0x0000000089447c20) 
thrown [t:/workspace/open/src/hotspot/share/interpreter/linkResolver.cpp, line 1431]
Event: 663.003 Thread 0x000001db4c699000 Exception <a 'java/lang/NullPointerException'{0x00000000894b5450}> (0x00000000894b5450) 
thrown [t:/workspace/open/src/hotspot/share/interpreter/linkResolver.cpp, line 1431]
Event: 663.003 Thread 0x000001db4c699000 Exception <a 'java/lang/NullPointerException'{0x00000000894b76c0}> (0x00000000894b76c0) 
thrown [t:/workspace/open/src/hotspot/share/interpreter/linkResolver.cpp, line 1431]
Event: 663.020 Thread 0x000001db4c69f800 Exception <a 'java/lang/NullPointerException'{0x0000000089603cc0}> (0x0000000089603cc0) 
thrown [t:/workspace/open/src/hotspot/share/interpreter/linkResolver.cpp, line 1431]
Event: 663.020 Thread 0x000001db4c69f800 Exception <a 'java/lang/NullPointerException'{0x0000000089605f30}> (0x0000000089605f30) 
thrown [t:/workspace/open/src/hotspot/share/interpreter/linkResolver.cpp, line 1431]
Event: 663.031 Thread 0x000001db4c69a000 Exception <a 'java/lang/NullPointerException'{0x000000008929ffa8}> (0x000000008929ffa8) 
thrown [t:/workspace/open/src/hotspot/share/interpreter/linkResolver.cpp, line 1431]
Event: 663.032 Thread 0x000001db4c69a000 Exception <a 'java/lang/NullPointerException'{0x00000000892a2218}> (0x00000000892a2218) 
thrown [t:/workspace/open/src/hotspot/share/interpreter/linkResolver.cpp, line 1431]

Events (20 events):
Event: 641.048 Executing VM operation: BulkRevokeBias
Event: 641.048 Executing VM operation: BulkRevokeBias done
Event: 643.938 Executing VM operation: RevokeBias
Event: 643.939 Executing VM operation: RevokeBias done
Event: 643.959 Thread 0x000001db4882b800 Thread added: 0x000001db4882b800
Event: 643.965 Executing VM operation: RevokeBias
Event: 643.965 Executing VM operation: RevokeBias done
Event: 643.968 Executing VM operation: RevokeBias
Event: 643.969 Executing VM operation: RevokeBias done
Event: 645.404 Executing VM operation: RevokeBias
Event: 645.404 Executing VM operation: RevokeBias done
Event: 645.404 Executing VM operation: RevokeBias
Event: 645.405 Thread 0x000001db4882b800 Thread exited: 0x000001db4882b800
Event: 645.406 Executing VM operation: RevokeBias done
Event: 663.001 Executing VM operation: HandshakeAllThreads
Event: 663.001 Executing VM operation: HandshakeAllThreads done
Event: 663.012 Executing VM operation: BulkRevokeBias
Event: 663.016 Executing VM operation: BulkRevokeBias done
Event: 663.026 Executing VM operation: RevokeBias
Event: 663.027 Executing VM operation: RevokeBias done


Dynamic libraries:
0x00007ff6d53d0000 - 0x00007ff6d53df000 	C:\Program Files\Java\jdk-13.0.1\bin\javaw.exe
0x00007ffbd8ae0000 - 0x00007ffbd8cd0000 	C:\WINDOWS\SYSTEM32\ntdll.dll
0x00007ffbd7070000 - 0x00007ffbd7122000 	C:\WINDOWS\System32\KERNEL32.DLL
0x00007ffbd5a70000 - 0x00007ffbd5d14000 	C:\WINDOWS\System32\KERNELBASE.dll
0x00007ffbd6700000 - 0x00007ffbd67fa000 	C:\WINDOWS\System32\ucrtbase.dll
0x00007ffbbbed0000 - 0x00007ffbbbee8000 	C:\Program Files\Java\jdk-13.0.1\bin\jli.dll
0x00007ffbbe810000 - 0x00007ffbbe825000 	C:\Program Files\Java\jdk-13.0.1\bin\VCRUNTIME140.dll
0x00007ffbd6b90000 - 0x00007ffbd6c33000 	C:\WINDOWS\System32\ADVAPI32.dll
0x00007ffbd8a00000 - 0x00007ffbd8a9e000 	C:\WINDOWS\System32\msvcrt.dll
0x00007ffbd76c0000 - 0x00007ffbd7757000 	C:\WINDOWS\System32\sechost.dll
0x00007ffbd6c40000 - 0x00007ffbd6d60000 	C:\WINDOWS\System32\RPCRT4.dll
0x00007ffbd7980000 - 0x00007ffbd7b14000 	C:\WINDOWS\System32\USER32.dll
0x00007ffbc4560000 - 0x00007ffbc47e4000 	C:\WINDOWS\WinSxS\amd64_microsoft.windows.common-controls_6595b64144ccf1df_6.0.18362.900_none_e6beb9d913147d17\COMCTL32.dll
0x00007ffbd64a0000 - 0x00007ffbd64c1000 	C:\WINDOWS\System32\win32u.dll
0x00007ffbd7760000 - 0x00007ffbd7786000 	C:\WINDOWS\System32\GDI32.dll
0x00007ffbd7380000 - 0x00007ffbd76b5000 	C:\WINDOWS\System32\combase.dll
0x00007ffbd6930000 - 0x00007ffbd6ac5000 	C:\WINDOWS\System32\gdi32full.dll
0x00007ffbd6620000 - 0x00007ffbd66a0000 	C:\WINDOWS\System32\bcryptPrimitives.dll
0x00007ffbd6ad0000 - 0x00007ffbd6b6e000 	C:\WINDOWS\System32\msvcp_win.dll
0x00007ffbd0d60000 - 0x00007ffbd0d6a000 	C:\WINDOWS\SYSTEM32\VERSION.dll
0x00007ffbd7940000 - 0x00007ffbd796e000 	C:\WINDOWS\System32\IMM32.DLL
0x00007ffbb7c60000 - 0x00007ffbb7cfb000 	C:\Program Files\Java\jdk-13.0.1\bin\msvcp140.dll
0x00007ffb95ca0000 - 0x00007ffb96806000 	C:\Program Files\Java\jdk-13.0.1\bin\server\jvm.dll
0x00007ffbd7970000 - 0x00007ffbd7978000 	C:\WINDOWS\System32\PSAPI.DLL
0x00007ffbd33f0000 - 0x00007ffbd3414000 	C:\WINDOWS\SYSTEM32\WINMM.dll
0x00007ffbd44a0000 - 0x00007ffbd44a9000 	C:\WINDOWS\SYSTEM32\WSOCK32.dll
0x00007ffbd7130000 - 0x00007ffbd719f000 	C:\WINDOWS\System32\WS2_32.dll
0x00007ffbd33c0000 - 0x00007ffbd33ed000 	C:\WINDOWS\SYSTEM32\WINMMBASE.dll
0x00007ffbd68e0000 - 0x00007ffbd692a000 	C:\WINDOWS\System32\cfgmgr32.dll
0x00007ffbd59b0000 - 0x00007ffbd59c1000 	C:\WINDOWS\System32\kernel.appcore.dll
0x00007ffbc5eb0000 - 0x00007ffbc5ec0000 	C:\Program Files\Java\jdk-13.0.1\bin\verify.dll
0x00007ffbd4140000 - 0x00007ffbd4334000 	C:\WINDOWS\SYSTEM32\DBGHELP.DLL
0x00007ffbc47f0000 - 0x00007ffbc481a000 	C:\WINDOWS\SYSTEM32\dbgcore.DLL
0x00007ffbb2a30000 - 0x00007ffbb2a56000 	C:\Program Files\Java\jdk-13.0.1\bin\java.dll
0x00007ffbbf7d0000 - 0x00007ffbbf7e7000 	C:\Program Files\Java\jdk-13.0.1\bin\zip.dll
0x00007ffbc4310000 - 0x00007ffbc431a000 	C:\Program Files\Java\jdk-13.0.1\bin\jimage.dll
0x00007ffbd8310000 - 0x00007ffbd89f6000 	C:\WINDOWS\System32\SHELL32.dll
0x00007ffbd6ef0000 - 0x00007ffbd6f99000 	C:\WINDOWS\System32\shcore.dll
0x00007ffbd5d20000 - 0x00007ffbd64a0000 	C:\WINDOWS\System32\windows.storage.dll
0x00007ffbd5a40000 - 0x00007ffbd5a63000 	C:\WINDOWS\System32\profapi.dll
0x00007ffbd59d0000 - 0x00007ffbd5a1a000 	C:\WINDOWS\System32\powrprof.dll
0x00007ffbd59a0000 - 0x00007ffbd59b0000 	C:\WINDOWS\System32\UMPDC.dll
0x00007ffbd7d50000 - 0x00007ffbd7da2000 	C:\WINDOWS\System32\shlwapi.dll
0x00007ffbd6b70000 - 0x00007ffbd6b87000 	C:\WINDOWS\System32\cryptsp.dll
0x00007ffbbf500000 - 0x00007ffbbf519000 	C:\Program Files\Java\jdk-13.0.1\bin\net.dll
0x00007ffbcd100000 - 0x00007ffbcd1f0000 	C:\WINDOWS\SYSTEM32\WINHTTP.dll
0x00007ffbd51b0000 - 0x00007ffbd5217000 	C:\WINDOWS\system32\mswsock.dll
0x00007ffbbf0a0000 - 0x00007ffbbf0b3000 	C:\Program Files\Java\jdk-13.0.1\bin\nio.dll
0x00007ffbce4a0000 - 0x00007ffbce4a9000 	C:\Program Files\Java\jdk-13.0.1\bin\management.dll
0x00007ffbce460000 - 0x00007ffbce46b000 	C:\Program Files\Java\jdk-13.0.1\bin\management_ext.dll
0x00007ffbc2330000 - 0x00007ffbc2346000 	C:\WINDOWS\system32\napinsp.dll
0x00007ffbc2310000 - 0x00007ffbc232a000 	C:\WINDOWS\system32\pnrpnsp.dll
0x00007ffbd4f50000 - 0x00007ffbd501b000 	C:\WINDOWS\SYSTEM32\DNSAPI.dll
0x00007ffbd6ee0000 - 0x00007ffbd6ee8000 	C:\WINDOWS\System32\NSI.dll
0x00007ffbd4ec0000 - 0x00007ffbd4efa000 	C:\WINDOWS\SYSTEM32\IPHLPAPI.DLL
0x00007ffbc2300000 - 0x00007ffbc230e000 	C:\WINDOWS\System32\winrnr.dll
0x00007ffbd12d0000 - 0x00007ffbd12ec000 	C:\WINDOWS\system32\NLAapi.dll
0x00007ffbc22e0000 - 0x00007ffbc22f5000 	C:\WINDOWS\system32\wshbth.dll
0x00007ffbcc1d0000 - 0x00007ffbcc1da000 	C:\Windows\System32\rasadhlp.dll
0x00007ffbcd800000 - 0x00007ffbcd877000 	C:\WINDOWS\System32\fwpuclnt.dll
0x00007ffbd68b0000 - 0x00007ffbd68d6000 	C:\WINDOWS\System32\bcrypt.dll
0x00007ffbd4d20000 - 0x00007ffbd4d53000 	C:\WINDOWS\system32\rsaenh.dll
0x00007ffbd58c0000 - 0x00007ffbd58e5000 	C:\WINDOWS\SYSTEM32\USERENV.dll
0x00007ffbd5380000 - 0x00007ffbd538c000 	C:\WINDOWS\SYSTEM32\CRYPTBASE.dll
0x00007ffbcf620000 - 0x00007ffbcf636000 	C:\WINDOWS\SYSTEM32\dhcpcsvc6.DLL
0x00007ffbce6f0000 - 0x00007ffbce70c000 	C:\WINDOWS\SYSTEM32\dhcpcsvc.DLL
0x00007ffbd1180000 - 0x00007ffbd118e000 	C:\Program Files\Java\jdk-13.0.1\bin\sunmscapi.dll
0x00007ffbd64d0000 - 0x00007ffbd6619000 	C:\WINDOWS\System32\CRYPT32.dll
0x00007ffbd5a20000 - 0x00007ffbd5a32000 	C:\WINDOWS\System32\MSASN1.dll
0x00007ffbd5480000 - 0x00007ffbd54a6000 	C:\WINDOWS\SYSTEM32\ncrypt.dll
0x00007ffbd5440000 - 0x00007ffbd547b000 	C:\WINDOWS\SYSTEM32\NTASN1.dll
0x00007ffbb86e0000 - 0x00007ffbb8705000 	C:\Program Files\Java\jdk-13.0.1\bin\sunec.dll

dbghelp: loaded successfully - version: 4.0.5 - missing functions: none
symbol engine: initialized successfully - sym options: 0x614 - pdb path: .;C:\Program Files\Java\jdk-13.0.1\bin;C:\WINDOWS\SYSTEM32;C:\WINDOWS\WinSxS\amd64_microsoft.windows.common-controls_6595b64144ccf1df_6.0.18362.900_none_e6beb9d913147d17;C:\Program Files\Java\jdk-13.0.1\bin\server

VM Arguments:
jvm_args: -Dfile.encoding=UTF-8 
java_command: app.App
java_class_path (initial): C:\Users\Jelena\Desktop\lms-learning-management-system\backend\LMS\target\classes;C:\Users\Jelena\.m2\repository\org\springframework\boot\spring-boot-starter-web\2.2.5.RELEASE\spring-boot-starter-web-2.2.5.RELEASE.jar;C:\Users\Jelena\.m2\repository\org\springframework\boot\spring-boot-starter\2.2.5.RELEASE\spring-boot-starter-2.2.5.RELEASE.jar;C:\Users\Jelena\.m2\repository\org\springframework\boot\spring-boot\2.2.5.RELEASE\spring-boot-2.2.5.RELEASE.jar;C:\Users\Jelena\.m2\repository\org\springframework\boot\spring-boot-autoconfigure\2.2.5.RELEASE\spring-boot-autoconfigure-2.2.5.RELEASE.jar;C:\Users\Jelena\.m2\repository\org\springframework\boot\spring-boot-starter-logging\2.2.5.RELEASE\spring-boot-starter-logging-2.2.5.RELEASE.jar;C:\Users\Jelena\.m2\repository\ch\qos\logback\logback-classic\1.2.3\logback-classic-1.2.3.jar;C:\Users\Jelena\.m2\repository\ch\qos\logback\logback-core\1.2.3\logback-core-1.2.3.jar;C:\Users\Jelena\.m2\repository\org\apache\logging\log4j\log4j-to-slf4j\2.12.1\log4j-to-slf4j-2.12.1.jar;C:\Users\Jelena\.m2\repository\org\apache\logging\log4j\log4j-api\2.12.1\log4j-api-2.12.1.jar;C:\Users\Jelena\.m2\repository\org\slf4j\jul-to-slf4j\1.7.30\jul-to-slf4j-1.7.30.jar;C:\Users\Jelena\.m2\repository\org\yaml\snakeyaml\1.25\snakeyaml-1.25.jar;C:\Users\Jelena\.m2\repository\org\springframework\boot\spring-boot-starter-json\2.2.5.RELEASE\spring-boot-starter-json-2.2.5.RELEASE.jar;C:\Users\Jelena\.m2\repository\com\fasterxml\jackson\datatype\jackson-datatype-jdk8\2.10.2\jackson-datatype-jdk8-2.10.2.jar;C:\Users\Jelena\.m2\repository\com\fasterxml\jackson\datatype\jackson-datatype-jsr310\2.10.2\jackson-datatype-jsr310-2.10.2.jar;C:\Users\Jelena\.m2\repository\com\fasterxml\jackson\module\jackson-module-parameter-names\2.10.2\jackson-module-parameter-names-2.10.2.jar;C:\Users\Jelena\.m2\repository\org\springframework\boot\spring-boot-starter-validation\2.2.5.RELEASE\spring-boot-starter-validation-2.2.5.RELEASE.jar;C:\Users\J
Launcher Type: SUN_STANDARD

[Global flags]
     intx CICompilerCount                          = 3                                         {product} {ergonomic}
     uint ConcGCThreads                            = 1                                         {product} {ergonomic}
     uint G1ConcRefinementThreads                  = 4                                         {product} {ergonomic}
   size_t G1HeapRegionSize                         = 1048576                                   {product} {ergonomic}
    uintx GCDrainStackTargetSize                   = 64                                        {product} {ergonomic}
   size_t InitialHeapSize                          = 132120576                                 {product} {ergonomic}
   size_t MarkStackSize                            = 4194304                                   {product} {ergonomic}
   size_t MaxHeapSize                              = 2113929216                                {product} {ergonomic}
   size_t MaxNewSize                               = 1267728384                                {product} {ergonomic}
   size_t MinHeapDeltaBytes                        = 1048576                                   {product} {ergonomic}
   size_t MinHeapSize                              = 8388608                                   {product} {ergonomic}
    uintx NonNMethodCodeHeapSize                   = 5830732                                {pd product} {ergonomic}
    uintx NonProfiledCodeHeapSize                  = 122913754                              {pd product} {ergonomic}
    uintx ProfiledCodeHeapSize                     = 122913754                              {pd product} {ergonomic}
    uintx ReservedCodeCacheSize                    = 251658240                              {pd product} {ergonomic}
     bool SegmentedCodeCache                       = true                                      {product} {ergonomic}
   size_t SoftMaxHeapSize                          = 2113929216                             {manageable} {ergonomic}
     bool UseCompressedClassPointers               = true                                 {lp64_product} {ergonomic}
     bool UseCompressedOops                        = true                                 {lp64_product} {ergonomic}
     bool UseG1GC                                  = true                                      {product} {ergonomic}
     bool UseLargePagesIndividualAllocation        = false                                  {pd product} {ergonomic}

Logging:
Log output configuration:
 #0: stdout all=warning uptime,level,tags
 #1: stderr all=off uptime,level,tags

Environment Variables:
JAVA_HOME=C:\Program Files\Java\jdk-13.0.1\bin
PATH=C:/Program Files/Java/jdk-13.0.1/bin/server;C:/Program Files/Java/jdk-13.0.1/bin;C:\WINDOWS\system32;C:\WINDOWS;C:\WINDOWS\System32\Wbem;C:\WINDOWS\System32\WindowsPowerShell\v1.0\;C:\WINDOWS\System32\OpenSSH\;C:\Program Files\dotnet\;C:\Program Files\Microsoft SQL Server\130\Tools\Binn\;C:\Program Files\Microsoft SQL Server\Client SDK\ODBC\170\Tools\Binn\;C:\Program Files\Git\cmd;C:\Program Files\Git\mingw64\bin;C:\Program Files\Git\usr\bin;C:\Program Files\Java\jdk-13.0.1\bin;C:\Program Files\nodejs\;C:\Users\Jelena\AppData\Local\Microsoft\WindowsApps;C:\Users\Jelena\AppData\Local\Programs\Microsoft VS Code\bin;C:\Users\Jelena\AppData\Roaming\npm;C:\Users\Jelena\Desktop;
USERNAME=Jelena
OS=Windows_NT
PROCESSOR_IDENTIFIER=Intel64 Family 6 Model 78 Stepping 3, GenuineIntel



---------------  S Y S T E M  ---------------

OS: Windows 10 , 64 bit Build 18362 (10.0.18362.900)

CPU:total 4 (initial active 4) (2 cores per cpu, 2 threads per core) family 6 model 78 stepping 3, cmov, cx8, fxsr, mmx, sse, sse2, sse3, ssse3, sse4.1, sse4.2, popcnt, avx, avx2, aes, clmul, erms, 3dnowpref, lzcnt, ht, tsc, tscinvbit, bmi1, bmi2, adx, fma

Memory: 4k page, system-wide physical 8059M (996M free)
TotalPageFile size 10107M (AvailPageFile size 171M)
current process WorkingSet (physical memory assigned to process): 271M, peak: 313M
current process commit charge ("private bytes"): 306M, peak: 356M

vm_info: Java HotSpot(TM) 64-Bit Server VM (13.0.1+9) for windows-amd64 JRE (13.0.1+9), built on Oct  6 2019 12:37:49 by "mach5one" with unknown MS VC++:1916

END.
